{
   "controllers.Assets.at(path='/public', file='index.html')": {
      "url": "get /",
      "tags": "1.01 Gateway-Access",
      "summary": "Base URL",
      "description": "Root path",
      "return_type": "json"
   },
   "controllers.Assets.at(path='/public', file)": {
      "url": "get /*file",
      "tags": "1.01 Gateway-Access",
      "summary": "Fetch documents from server",
      "description": "Get html, css and other documents",
      "return_type": "json"
   },
   "dme.rest.machine.MachineController.getAllCommandTypes": {
      "url": "get /commands/types",
      "tags": "2.01 Configuration-Types",
      "summary": "gets all command types",
      "description": "Returns list of json. example types: Connection, Reference, AddLayer, RampHeating, StopRecordProcessSensor, RecordProcessSensor, Expose, Switch, UpdateComponent, Move",
      "return_type": "list of json"
   },
   "dme.rest.machine.MachineController.createCommandType": {
      "url": "post /commands/types",
      "tags": "2.01 Configuration-Types",
      "summary": "create a new command type",
      "description": "Must receive a json like `{'name':'newCmd', 'description':'descrp'}`. If successful, returns `{'ok':'commandType created.'}`",
      "return_type": "json"
   },
   "dme.rest.machine.MachineController.getCommandTypeImpls": {
      "url": "get /commands/types/:id/impls",
      "tags": "2.01 Configuration-Types",
      "summary": "gets all commands for each type.",
      "description": "Returns all commands for each type. Use the object id received by `GET /commands/types` for `:id`. For instance, for the `:id` corresponding to Move, it will yield 'MoveAbsolouteCommand', 'MoveRelativeCommand' and others.",
      "return_type": "json"
   },
   "dme.rest.machine.MachineController.getAllComponentTypes": {
      "url": "get /components/types",
      "tags": "2.01 Configuration-Types",
      "summary": "list component types",
      "description": "returns a list of jsons with components, e.g. OpticalAxis or Illumination",
      "return_type": "list of json"
   },
   "dme.rest.machine.MachineController.createComponentType": {
      "url": "post /components/types",
      "tags": "2.01 Configuration-Types",
      "summary": "create a new component type",
      "description": "Must receive a json like `{'name':'newComponent', 'description':'descrp', 'ctype':'yourCtype'}`. If successful, returns `{'ok':'component created.'}`",
      "return_type": "json"
   },
   "dme.rest.machine.MachineController.getComponentTypeImpls": {
      "url": "get /components/types/:id/impls",
      "tags": "2.01 Configuration-Types",
      "summary": "get the implementations of a component type",
      "description": "Returns json with all implementations of given component. For example DualHeater, SimplePLCHeater (and others) for component Heater.Use the object id received with `GET /components/types` for :id",
      "return_type": "json"
   },
   "dme.rest.machine.ConfigurationController.getAll": {
      "url": "get /configurations",
      "tags": "2.02 Configuration-Configurations",
      "summary": "get complete information about all configs",
      "description": "Returns list of json, each list element corresponding to the complete information for one config",
      "return_type": "list of json"
   },
   "dme.rest.machine.ConfigurationController.get": {
      "url": "get /configurations/:config_id",
      "tags": "2.02 Configuration-Configurations",
      "summary": "get complete information about one config",
      "description": "Returns json with all information about one config, i.e groups, machine, name, state, history, tags, commands, components, topics. use the '$oid' received with `GET /configurations`.",
      "return_type": "json"
   },
   "dme.rest.machine.ConfigurationController.delete": {
      "url": "delete /configurations/:config_id",
      "tags": "2.02 Configuration-Configurations",
      "summary": "delete a config",
      "description": "Requires a json with `{'_id': {'$oid': ':config_id'}`}. If successful, returns a json with `{'ok':'Instance deleted'}`",
      "return_type": "json"
   },
   "dme.rest.machine.ConfigurationController.getAllCmds": {
      "url": "get /configurations/:config_id/cmd",
      "tags": "2.04 Configuration-Command",
      "summary": "get all commands for one config",
      "description": "Returns a list of json, one json for each command",
      "return_type": "list of json"
   },
   "dme.rest.machine.ConfigurationController.addCmd": {
      "url": "post /configurations/:config_id/cmd",
      "tags": "2.04 Configuration-Command",
      "summary": "create a new command for one config",
      "description": "Requires a json corresponding to the command. Must be formatted like a cmd that is returned by `GET /configurations/:config_id/cmd`. If successful, returns json with `{'ok':'command created.', 'id': <id>}`",
      "return_type": "json"
   },
   "dme.rest.machine.ConfigurationController.getCommand": {
      "url": "get /configurations/:config_id/cmd/:command_id",
      "tags": "2.04 Configuration-Command",
      "summary": "details for one command id",
      "description": "Returns one json for each command. It corresponds to one specific element of the list received with `GET /configurations/:config_id/cmd`.",
      "return_type": "json"
   },
   "dme.rest.machine.ConfigurationController.removeCmd": {
      "url": "delete /configurations/:config_id/cmd/:command_id",
      "tags": "2.04 Configuration-Command",
      "summary": "deletes a specific command from one config",
      "description": "Must supply a json with `{'_id': {'$oid': '<command_id>'}`. Success returns `{'ok':'command deleted.'}",
      "return_type": "json"
   },
   "dme.rest.machine.ConfigurationController.updateCmd": {
      "url": "put /configurations/:config_id/cmd/:command_id",
      "tags": "2.04 Configuration-Command",
      "summary": "updates a specific command for one config",
      "description": "Must supply a json with the changes. For example, `{'id':'DisableSomething'}` would rename the given command. If Success, returns `{'ok':'command updated.'}`",
      "return_type": "json"
   },
   "dme.rest.machine.ConfigurationController.getAllComponents": {
      "url": "get /configurations/:config_id/components",
      "tags": "2.05 Configuration-Component",
      "summary": "get all components for one config",
      "description": "Returns a detailed list of jsons for each component.",
      "return_type": "list of json"
   },
   "dme.rest.machine.ConfigurationController.addComponent": {
      "url": "post /configurations/:config_id/components",
      "tags": "2.05 Configuration-Component",
      "summary": "creates a new component for one config",
      "description": "Requires a json with the new component. It must be formatted like the other configurations returned by `GET /configurations/:config_id/components`.\\nIf successfull, returs json with `{'id': <new_component_id>}`.",
      "return_type": "json"
   },
   "dme.rest.machine.ConfigurationController.getComponent": {
      "url": "get /configurations/:config_id/components/:component_id",
      "tags": "2.05 Configuration-Component",
      "summary": "details of one component belonging to a config",
      "description": "Returns a json for each component belonging to one config. It corresponds to one specific element of the list received with `GET /configurations/:config_id/components`.",
      "return_type": "json"
   },
   "dme.rest.machine.ConfigurationController.updateComponent": {
      "url": "put /configurations/:config_id/components/:component_id",
      "tags": "2.05 Configuration-Component",
      "summary": "updates a specific component by a configuration.",
      "description": "Use the component id here.",
      "return_type": "json"
   },
   "dme.rest.machine.ConfigurationController.removeComponent": {
      "url": "delete /configurations/:config_id/components/:component_id",
      "tags": "2.05 Configuration-Component",
      "summary": "deletes a specific compontent for a configuration",
      "description": "Use the component id here.",
      "return_type": "json"
   },
   "dme.rest.machine.ConfigurationController.duplicate": {
      "url": "post /configurations/:config_id/duplicate",
      "tags": "2.02 Configuration-Configurations",
      "summary": "duplicates a config",
      "description": "Requires as data the complete config to duplicate. `:config_id` corresponds to the `$oid`. \\nThis id is part of the config, returned by `GET /configurations`.",
      "return_type": "json"
   },
   "dme.rest.machine.ConfigurationController.exportConfig": {
      "url": "get /configurations/:config_id/export/:format",
      "tags": "2.02 Configuration-Configurations",
      "summary": "exports a configuration",
      "description": "If `:format` is not `csv` returns json with `{'config':<encrypted_config_string>}`.\\nIf `:format` is `csv` ?",
      "return_type": "json"
   },
   "dme.rest.machine.ConfigurationControlController.init": {
      "url": "get /configurations/:config_id/init",
      "tags": "3.01 Control-ConfigurationControl",
      "summary": "initializes the config",
      "description": "If successfull, returns a json object with `{'success': 'machine initialized'}`",
      "return_type": "json"
   },
   "dme.rest.machine.ConfigurationControlController.start": {
      "url": "get /configurations/:config_id/start",
      "tags": "3.01 Control-ConfigurationControl",
      "summary": "start the config",
      "description": "Before calling this route, make sure to have initialized the config with `get /configurations/:config_id/init`. \\nIf successfull, returns a json with `{'success': 'started configuration <config name>'}`",
      "return_type": "json"
   },
   "dme.rest.machine.ConfigurationControlController.stop": {
      "url": "get /configurations/:config_id/stop",
      "tags": "3.01 Control-ConfigurationControl",
      "summary": "stops the config",
      "description": "Uninits the config.\\nIf successfull, returns json with `{'success': 'successfully released machine <config name>'}`.",
      "return_type": "json"
   },
   "dme.rest.machine.ConfigurationController.addTopic": {
      "url": "post /configurations/:config_id/topics",
      "tags": "2.06 Configuration-Topic",
      "summary": "adds a new topic to a specific configuration",
      "description": "Requires topic be sent as json.\\nIf successfull, returns json with `{'id': <new_id>}`.",
      "return_type": "json"
   },
   "dme.rest.machine.ConfigurationController.getAllTopics": {
      "url": "get /configurations/:config_id/topics",
      "tags": "2.06 Configuration-Topic",
      "summary": "get information about all topics",
      "description": "Return list with 4 json elements which have the key-value pairs 'id'-['State', 'Positioning', 'Sensor', 'Emergency']",
      "return_type": "list of json"
   },
   "dme.rest.machine.ConfigurationController.getTopic": {
      "url": "get /configurations/:config_id/topics/:topic_id",
      "tags": "2.06 Configuration-Topic",
      "summary": "returns a specific topic",
      "description": "Returns a json corresponding to one of the 4 json elements received with `GET /configurations/:config_id/topics'. Use the '$oid' as the `:topic_id`",
      "return_type": "json"
   },
   "dme.rest.machine.ConfigurationController.removeTopic": {
      "url": "delete /configurations/:config_id/topics/:topic_id",
      "tags": "2.06 Configuration-Topic",
      "summary": "deletes a specific topic",
      "description": "Requires a json with `{'_id':{'$oid': <topic_id>}}`.\\nIf successfull, returns json `{'ok': 'component deleted'}`.",
      "return_type": "json"
   },
   "dme.rest.machine.ConfigurationController.updateTopic": {
      "url": "put /configurations/:config_id/topics/:topic_id",
      "tags": "2.06 Configuration-Topic",
      "summary": "updates a specific topic",
      "description": "Requires a json with the values that shall be updated. For example `{'id':'Positioning2'}`.\\nIf successfull, returns json with `{'ok': 'component updated'}`",
      "return_type": "json"
   },
   "dme.rest.machine.ConfigurationController.update": {
      "url": "put /configurations/:config_id/update",
      "tags": "2.02 Configuration-Configurations",
      "summary": "updates a specific configuration",
      "description": "Requires a json sent with the changes. For instance, if the name should be changed, send `{'name':'newName'}`. If successful, returns `{'ok': 'instance updated'}`.",
      "return_type": "json"
   },
   "dme.rest.machine.ConfigurationController.decrypt": {
      "url": "post /configurations/decrypt",
      "tags": "2.02 Configuration-Configurations",
      "summary": "decrypt a configuration",
      "description": "Requires a json with `{'raw':<encrypted_config_string>, 'password': 'yourpassword'}`.\\nReturns json `{'config':<stringified_config>}`.",
      "return_type": "json"
   },
   "dme.rest.api.ApplicationController.socket": {
      "url": "get /connect",
      "tags": "1.03 Gateway-Connectivity",
      "summary": "Creates websocket connection",
      "description": "For almost all routes documented in this API, `https://` must be written infront of the Base URL. For this route, exchange `http` to `ws`.\\nA websocket client must be called asynchronously. For an example call, consult the AconitySTUDIO python client. This route Must be called before subscribing to topics or reports",
      "return_type": "json"
   },
   "studio.rest.sensors.SensorController.getWorkUnitData": {
      "url": "get /data/:config_id/workUnit/:workunit_id",
      "tags": "5.01 Data-Session",
      "summary": "?",
      "description": "?",
      "return_type": "json"
   },
   "studio.rest.demo.DemoController.login": {
      "url": "post /demo/login",
      "tags": "6.02 Tests-Demo Tests",
      "summary": "login",
      "description": "returns XSRF-Token used for the authentication",
      "return_type": "json"
   },
   "studio.rest.demo.DemoController.executeOnLocalChannel": {
      "url": "post /demoexecute/:demo_channel_id",
      "tags": "6.02 Tests-Demo Tests",
      "summary": "?",
      "description": "executeOnLocalChannel description",
      "return_type": "json"
   },
   "studio.rest.demo.DemoController.getAll": {
      "url": "get /demousers",
      "tags": "6.02 Tests-Demo Tests",
      "summary": "getAll summary",
      "description": "getAll description",
      "return_type": "json"
   },
   "studio.rest.demo.DemoController.delete": {
      "url": "delete /demousers/:demo_user_id",
      "tags": "6.02 Tests-Demo Tests",
      "summary": "delete summary",
      "description": "delete description",
      "return_type": "json"
   },
   "studio.rest.demo.DemoController.control": {
      "url": "get /demousers/:demo_user_id/control",
      "tags": "6.02 Tests-Demo Tests",
      "summary": "control summary",
      "description": "control description",
      "return_type": "json"
   },
   "dme.rest.control.MachineControlController.discover": {
      "url": "get /discovermachines",
      "tags": "1.04 Gateway-Discovery",
      "summary": "discovers all machines in the network",
      "description": "If successfull, returns json with entry `machines`, which contains the machine `id`'s.",
      "return_type": "json"
   },
   "dme.rest.user.GroupController.getAll": {
      "url": "get /groups",
      "tags": "1.06 User",
      "summary": "get all users" ,
      "description": "Returns a list of json. Among the users are `admins`, `hosts`, `machine`, `config`, `runs`, `project`.",
      "return_type": "list of json"
   },
   "dme.rest.user.GroupController.get": {
      "url": "get /groups/:id",
      "tags": "1.06 User",
      "summary": "get specific user",
      "description": "Returns a json corresponding to one of the list elements received with `GET /groups`.",
      "return_type": "json"
   },
   "controllers.Assets.at(path='/public', file='init.html')": {
      "url": "get /init",
      "tags": "1.05 Gateway-Administration",
      "summary": "requests the login screen",
      "description": "Shows the login screen.",
      "return_type": "html"
   },
   "studio.rest.init.InitController.execute": {
      "url": "post /init/execute",
      "tags": "1.05 Gateway-Administration",
      "summary": "?",
      "description": "?",
      "return_type": "json"
   },
   "studio.rest.init.InitController.login": {
      "url": "post /init/login",
      "tags": "1.05 Gateway-Administration",
      "summary": "log in",
      "description": "Requires a json with `{'token':<token>}`, see `GET /init/token` on how to get the `<token>`.\\nIf successfull, returns json with `{'ok': 'token ok!'}`.\\nIf the return json is `{'error':'Wrong token!'}`, make sure that the `token` is still active, you might need to request a new one.",
      "return_type": "json"
   },
   "studio.rest.init.InitController.generateToken": {
      "url": "get /init/token",
      "tags": "1.05 Gateway-Administration",
      "summary": "generates token",
      "description": "If successfull, returns json with `{'message': 'Token created.!'}`\\nThe token is stored physically on the server inside the folder `ac3d_studio/SecureToken.`",
      "return_type": "json"
   },
   "studio.rest.project.JobController.getAll": {
      "url": "get /jobs",
      "tags": "7.02 Jobs",
      "summary": "get all jobs",
      "description": "Receives a list of jsons, each for one job",
      "return_type": "list of json"
   },
   "studio.rest.project.JobController.get": {
      "url": "get /jobs/:job_id",
      "tags": "7.02 Jobs",
      "summary": "get job info for a specific job id",
      "description": "The json received is equivalent to the corresponding list element received with `GET /jobs`.",
      "return_type": "json"
   },
   "studio.rest.project.JobController.update": {
      "url": "put /jobs/:job_id",
      "tags": "7.02 Jobs",
      "summary": "updates job with specified id",
      "description": "Requires a json with the values that shall be updated. For example `{'name':'NewName'}`.\\nIf successfull, returns json with `{'ok': 'instance updated'}`",
      "return_type": "json"
   },
   "studio.rest.project.JobController.delete": {
      "url": "delete /jobs/:job_id",
      "tags": "7.02 Jobs",
      "summary": "deletes the job with the given id",
      "description": "Requires a json with `{'_id':{'$oid': <job_id>}}`.\\nIf successfull, returns json `{'ok': 'Instance deleted'}`.",
      "return_type": "json"
   },
   "dme.rest.api.ApplicationController.login": {
      "url": "post /login",
      "tags": "1.02 Gateway-Authentication",
      "summary": "login",
      "description": "Login to the server. With the python client, send the credentials within a json with `{'email':<email>', 'password':<password>}`. The headers for the request are `{'content-type': 'application/json}`. \\nReturns json with `{'authToken':<token>, 'userId':<id>'}`. \\nNote: Afterwards, for each following request, update your headers to:\\n`headers = {`\\n`'content-type': 'application/json',`\\n`'Cookie':'XSRF-token=<token>'`\\n`'X-XSRF-token':'<token>'`\\n`'Authorization':'XSRF-token=<token>'`\\n`}`",
      "return_type": "json"
   },
   "dme.rest.api.ApplicationController.logout": {
      "url": "post /logout",
      "tags": "1.02 Gateway-Authentication",
      "summary": "logout",
      "description": "Logs the user out",
      "return_type": "json"
   },
   "dme.rest.script.ScriptController.executeOnChannel": {
      "url": "post /machine/:machine_id/execute/:channel",
      "tags": "4.03 Script-Execution",
      "summary": "executes a script",
      "description": "Currently, execution channel must be set to `manual`. Requires that a script be sent to the websocket server as data. This data must be a json file configured like `{'code':<script>, 'partRefs':[]}`.\\n For example, `<script>` can be `'$m.on($c[guide_beam_1])'` to activate the first guide beam.",
      "return_type": "json"
   },
   "dme.rest.machine.MachineController.getAll": {
      "url": "get /machines",
      "tags": "2.03 Configuration-Machine",
      "summary": "gets information about all available machines",
      "description": "Returns information with more details than `GET /discovermachines/`. Not only machineId is returned, but also the 'implementation' (for example AconityONE), 'state', 'groups', 'location' and others",
      "return_type": "list of json"
   },
   "dme.rest.machine.MachineController.create": {
      "url": "post /machines",
      "tags": "2.03 Configuration-Machine",
      "summary": "create a new machine",
      "description": "Requires a json with the machine, in the same format as the machines that get returned by `GET /machines`. If successfull, returns `{'ok': 'machine created.'}`.",
      "return_type": "json"
   },
   "dme.rest.machine.MachineController.get": {
      "url": "get /machines/:machine_id",
      "tags": "2.03 Configuration-Machine",
      "summary": "gets information about a specific machine",
      "description": "Use the '_id' received with `GET /machines`",
      "return_type": "json"
   },
   "dme.rest.machine.MachineController.update": {
      "url": "put /machines/:machine_id",
      "tags": "2.03 Configuration-Machine",
      "summary": "updates a specific machine",
      "description": "Requires a json with the values which shall be updated, for example, `{'name':'newMachineName'}`.\\nIf successfull, returns `{'ok': 'instance updated'}`.",
      "return_type": "json"
   },
   "dme.rest.machine.MachineController.delete": {
      "url": "delete /machines/:machine_id",
      "tags": "2.03 Configuration-Machine",
      "summary": "deletes the machine with the specified id",
      "description": "Requires a json with `{'_id':{'$oid': <machine_id>}}`.\\nIf successfull, returns json `{'ok': 'Instance deleted'}`.",
      "return_type": "json"
   },
   "dme.rest.machine.ConfigurationControlController.acquire": {
      "url": "get /machines/:machine_id/acquire",
      "tags": "3.02 Control-MachineControl",
      "summary": "acquires machine",
      "description": "If successful, returns a json with a single entry 'success':'machine control acquired'",
      "return_type": "json"
   },
   "dme.rest.machine.ConfigurationController.getAllForMachine": {
      "url": "get /machines/:machine_id/configurations",
      "tags": "2.03 Configuration-Machine",
      "summary": "gets all configurations for a specific machine",
      "description": "Use the '$oid' for machine_id. ",
      "return_type": "json"
   },
   "dme.rest.machine.ConfigurationController.create": {
      "url": "post /machines/:machine_id/configurations",
      "tags": "2.03 Configuration-Machine",
      "summary": "create a new configuration for a specific machine",
      "description": "Requires configuration be sent as json. If successfull, returns json with \\n`{'msg': 'configuration created.', 'id': '5b926fbd23b6f8ef085e90c8'}`.",
      "return_type": "json"
   },
   "dme.rest.script.ScriptController.functions": {
      "url": "get /machines/:machine_id/functions",
      "tags": "4.01 Script-Functions",
      "summary": "gets all available functions for a machine",
      "description": "If successfull, returns json with all available functions. For each function, it includes on which components the function may be called aswell as how to call it via the AconityScript. Example:\\n`{'name':'move absolute',`\\n`'call':'$move_abs',`\\n`'components': ['$c[optical_axis]', '$c[slider]', $c[supplier]', '$c[platform]']`\\n`'parameter': []}`",
      "return_type": "json"
   },
   "dme.rest.machine.ConfigurationControlController.release": {
      "url": "get /machines/:machine_id/release",
      "tags": "3.02 Control-MachineControl",
      "summary": "release a machine",
      "description": "if successful,  returns a json with a single entry 'success':'successfully released machine `machine_id`'.",
      "return_type": "json"
   },
   "dme.rest.machine.MachineController.getMachineTypeImpls": {
      "url": "get /machines/types/:id/impls",
      "tags": "2.01 Configuration-Types",
      "summary": "get all implementations of a machine type",
      "description": "Currently, will return a json with 'AconityMIDI, AconitiyLAB, AconityMINI, SimpleSLMMachine, AconityONE'",
      "return_type": "json"
   },
   "dme.rest.machine.MachineController.getAllMachineTypes": {
      "url": "get /machines/types/all",
      "tags": "2.01 Configuration-Types",
      "summary": "get all machine types",
      "description": "Currently, only SLM is available",
      "return_type": "json"
   },
   "dme.rest.api.ApplicationController.partDataStream": {
      "url": "get /partDataStream",
      "tags": "1.03 Gateway-Connectivity",
      "summary": "?",
      "description": "400",
      "return_type": "json"
   },
   "studio.rest.parts.PartController.getAll": {
      "url": "get /parts",
      "tags": "7.03 Parts",
      "summary": "get all parts",
      "description": "Receives a list of json, one for each part.",
      "return_type": "list of json"
   },
   "studio.rest.parts.PartController.create2": {
      "url": "post /parts",
      "tags": "7.03 Parts",
      "summary": "upload a new part",
      "description":"The `content-type` header must be specified carefully, as it differs from other requests in this API. It must include `multipart/form-data`, along with a boundary. Example:\\n`{'Content-Type': 'multipart/form-data; boundary=101d842295df4a5ae28f7d5b590e3baa'}`\\nIf the python client AconitySTUDIO_client is used, simply omit this header. The python `requests` module supplies this header on its own. The request module also does not demand `data`, like it usually does, but `files`. Example:\n`files = {'file': ('Stempel.ilt', open('Stempel.ilt', 'rb'))}`. \nSupported datatypes are `ilt` and `cli`. If successfull, returns a string with `'File uploaded'`.",
      "return_type": "string"
   },
   "studio.rest.parts.PartController.get": {
      "url": "get /parts/:part_id",
      "tags": "7.03 Parts",
      "summary": "get information about a specific part",
      "description": "Corresponds to the information of one of the parts in the list received with `GET /parts`.",
      "return_type": "json"
   },
   "studio.rest.parts.PartController.update": {
      "url": "put /parts/:part_id",
      "tags": "7.03 Parts",
      "summary": "updates a part",
      "description": "Requires a json with the values which shall be updated, for example `{'name':'NewAconityBalls'}`.\\nIf successfull, returns json with `{'ok': 'instance updated'}`.",
      "return_type": "json"
   },
   "studio.rest.parts.PartController.delete": {
      "url": "delete /parts/:part_id",
      "tags": "7.03 Parts",
      "summary": "deletes a specific part",
      "description": "Requires a json with `{'_id':{'$oid': <part_id>}}`.\\nIf successfull, returns json `{'id': '<part_id>', 'success': 'part was successfully deleted!'}`.",
      "return_type": "json"
   },
   "dme.rest.api.ApplicationController.ping": {
      "url": "get /ping",
      "tags": "1.02 Gateway-Authentication",
      "summary": "keeps the connection alive",
      "description": "Must be sent periodically every few seconds to sustain the connection. Returns a json with `{'userId':'<userId>'}`",
      "return_type": "json"
   },
   "studio.rest.project.ProjectController.getAll": {
      "url": "get /projects",
      "tags": "7.01 Projects",
      "summary": "get a list of all projects",
      "description": "Returns a list of jsons. Each json in the list corrosponds to one project.",
      "return_type": "list of json"
   },
   "studio.rest.project.ProjectController.create": {
      "url": "post /projects",
      "tags": "7.01 Projects",
      "summary": "create a new project",
      "description": "Requires a json that contains the project.\\nIf successful, returns json with `{'id': '<new_project_id>', 'success': '<new_name> was successfully created:'}`.",
      "return_type": "json"
   },
   "studio.rest.project.ProjectController.get": {
      "url": "get /projects/:project_id",
      "tags": "7.01 Projects",
      "summary": "get information about specified project",
      "description": "The json returned corresponds to one of the elements of the list received via `GET /projects`.",
      "return_type": "json"
   },
   "studio.rest.project.ProjectController.update": {
      "url": "put /projects/:project_id",
      "tags": "7.01 Projects",
      "summary": "updates a project",
      "description":"Requires a json with the values that shall be updated. For example `{'name':'NewProjectName'}`.\\nIf successfull, returns json with `{'ok': 'instance updated'}`",
      "return_type": "json"
   },
   "studio.rest.project.ProjectController.delete": {
      "url": "delete /projects/:project_id",
      "tags": "7.01 Projects",
      "summary": "delete a specific project",
      "description": "Requires a json with `{'_id': {'$oid':<project_id>}}`.\\nIf successful, returns `{'ok':'Instance deleted'}`.",
      "return_type": "json"
   },
   "studio.rest.project.JobController.getAllForProject": {
      "url": "get /projects/:project_id/jobs",
      "tags": "7.01 Projects",
      "summary": "get all jobs that belong to one project",
      "description": "Returns a list of jsons, each element corresponds to a job.",
      "return_type": "json"
   },
   "studio.rest.project.JobController.createForProject": {
      "url": "post /projects/:project_id/jobs",
      "tags": "7.02 Jobs",
      "summary": "creates a new job for a given project",
      "description": "Requires that a job, in the same format as the ones returned by `GET /projects/:project_id/jobs`. If successfull, returns json with \\n `{'ok': 'job created.', 'id': <new_jobid>, 'success': '<new_name> was successfully created:'}`",
      "return_type": "json"
   },
   "dme.rest.script.ScriptController.getCurrent": {
      "url": "get /script",
      "tags": "4.02 Script-ExecutionState",
      "summary": "receives script",
      "description": "If successfull, returns json with information about `execution` (`workUnitId`, `channel`, `source`) and `start`, `initScript`, `execScript`, `typ`.",
      "return_type": "json"
   },
   "dme.rest.script.ScriptController.executeScript": {
      "url": "post /script/:config_id",
      "tags": "4.03 Script-Execution",
      "summary": "?",
      "description": "?",
      "return_type": "json"
   },
   "dme.rest.script.ScriptController.pauseScript": {
      "url": "get /script/:execution_channel/pause/:config_id",
      "tags": "4.02 Script-ExecutionState",
      "summary": "pauses a script",
      "description": "TODO: here execution_channel = workid from get('scripts'). Config_id = channel",
      "return_type": "json"
   },
   "dme.rest.script.ScriptController.resumeScript": {
      "url": "post /script/:execution_channel/resume/:config_id",
      "tags": "4.02 Script-ExecutionState",
      "summary": "resumeScript summary",
      "description": "resumeScript description",
      "return_type": "json"
   },
   "dme.rest.script.ScriptController.stopScript": {
      "url": "get /script/:execution_channel/stop/:config_id",
      "tags": "4.02 Script-ExecutionState",
      "summary": "stopScript summary",
      "description": "stopScript description",
      "return_type": "json"
   },
   "studio.rest.sensors.SensorController.getSessionIds": {
      "url": "get /sessions",
      "tags": "5.01 Data-Session",
      "summary": "get all session ids",
      "description": "Each Session gets a unique id, for example session_07412c84-1c6d-4d01-8fe3-8fdfb0ba650f",
      "return_type": "list"
   },
   "studio.rest.sensors.SensorController.getConfigIds": {
      "url": "get /sessions/:session_id",
      "tags": "5.01 Data-Session",
      "summary": "get all config ids",
      "description": "produces a list of all config ids for a specifig session id. Example: config_1_5b8988ae23b6f84600a10c4f",
      "return_type": "list"
   },
   "studio.rest.sensors.SensorController.getJobIndexes": {
      "url": "get /sessions/:session_id/configId/:config_id",
      "tags": "5.01 Data-Session",
      "summary": "get all job ids",
      "description": "Returns a list of all job ids. One such entry might be `'job_11_5bacfb0d370000610088b005'`.",
      "return_type": "list"
   },
   "studio.rest.sensors.SensorController.getSensorIds": {
      "url": "get /sessions/:session_id/configId/:config_id/jobIdx/:job_id/hub/:hub_id",
      "tags": "5.02 Data-Sensors",
      "summary": "getSensorIds summary",
      "description": "getSensorIds description",
      "return_type": "json"
   },
   "studio.rest.sensors.SensorController.getSubpartZs": {
      "url": "get /sessions/:session_id/configId/:config_id/jobIdx/:job_id/hub/:hub_id/sensorIcod/:sensorId/subpIdx/:subpart_id",
      "tags": "5.02 Data-Sensors",
      "summary": "getSubpartZs summary",
      "description": "getSubpartZs description",
      "return_type": "json"
   },
   "studio.rest.sensors.SensorController.getSubpartIndexes": {
      "url": "get /sessions/:session_id/configId/:config_id/jobIdx/:job_id/hub/:hub_id/sensorId/:sensor_id",
      "tags": "5.02 Data-Sensors",
      "summary": "getSubpartIndexes summary",
      "description": "getSubpartIndexes description",
      "return_type": "json"
   },
   "studio.rest.sensors.SensorController.getSubpartZFile": {
      "url": "get /sessions/:session_id/configId/:config_id/jobIdx/:job_id/hub/:hub_id/sensorId/:sensor_id/subpIdx/:subpart_id/z/:height/quality/:quality",
      "tags": "5.02 Data-Sensors",
      "summary": "getSubpartZFile summary",
      "description": "getSubpartZFile description",
      "return_type": "json"
   },
   "dme.rest.control.MachineControlController.stopChannel": {
      "url": "get /stop/channel/:execution_channel",
      "tags": "4.02 Script-ExecutionState",
      "summary": "stops execution",
      "description": "If successfull, returns a json with `{'success': 'channel stopped:<execution_channel>'}`.",
      "return_type": "json"
   },
   "studio.rest.machinetests.SLMTestsController.circleTest": {
      "url": "post /tests/slm/circle/:config_id",
      "tags": "6.01 Tests-SLM Machine Tests",
      "summary": "circle test",
      "description": "To ensure the roundness",
      "return_type": "json"
   },
   "studio.rest.machinetests.SLMTestsController.delayTest": {
      "url": "post /tests/slm/delay/:config_id",
      "tags": "6.01 Tests-SLM Machine Tests",
      "summary": "delay test",
      "description": "For configuration of scan delays",
      "return_type": "json"
   },
   "studio.rest.machinetests.SLMTestsController.focusTest": {
      "url": "post /tests/slm/focus/:config_id",
      "tags": "6.01 Tests-SLM Machine Tests",
      "summary": "focus test",
      "description": "Search of focus plane",
      "return_type": "json"
   },
   "studio.rest.machinetests.SLMTestsController.laserTest": {
      "url": "post /tests/slm/laser/:config_id",
      "tags": "6.01 Tests-SLM Machine Tests",
      "summary": "laser test",
      "description": "To measure the laserpower",
      "return_type": "json"
   },
   "studio.rest.machinetests.SLMTestsController.sizeTest": {
      "url": "post /tests/slm/size/:config_id",
      "tags": "6.01 Tests-SLM Machine Tests",
      "summary": "size test",
      "description": "Configuring the part size",
      "return_type": "json"
   },
   "dme.rest.user.UserController.getAll": {
       "url": "get /users",
      "tags": "1.06 User",
      "summary": "gets list of users",
      "description": "returns a list of jsons, each json corresponding to a user",
      "return_type": "list of json"
   },
   "dme.rest.user.UserController.create": {
      "url": "post /users",
      "tags": "1.06 User",
      "summary": "create a new user",
      "description": "Must send json with user information, formatted like the user information returned by `GET /users`.\\nIf successfull, returns json `{'ok':'user created}`",
      "return_type": "json"
   },
   "dme.rest.user.UserController.get": {
      "url": "get /users/:user_id",
      "tags": "1.06 User",
      "summary": "get information about a specific user",
      "description": "Returns a json with information about 'firstName', 'lastName', 'email', 'password', 'groups', 'history', 'isAdmin'",
      "return_type": "json"
   },
   "dme.rest.user.UserController.update": {
      "url": "put /users/:user_id",
      "tags": "1.06 User",
      "summary": "updates an existing user",
      "description": "Must send a json with the key-value pairs that shall be updated. For example `data = {'firstName':'newName'}`.\\nIf successfull, returns {'ok': 'instance updated'}",
      "return_type": "json"
   },
   "dme.rest.user.UserController.delete": {
      "url": "delete /users/:user_id",
      "tags": "1.06 User",
      "summary": "deletes a user",
      "description": "Requires a json with `{'_id': {'$oid':user_id}}`.\\nIf successful, returns `{'ok':'Instance deleted'}`.",
      "return_type": "json"
   }
}
