{
  "tags": [
    {
      "name": "1.00 Authentication",
      "description": "login, logout, ping"
    },
    {
      "name": "1.01 Gateway",
      "description": "Gateway"
    },
    {
      "name": "1.02 Command",
      "description": "create, read, update, delete"
    },
    {
      "name": "1.03 Component",
      "description": "create, read, update, delete"
    },
    {
      "name": "1.04 Configuration",
      "description": "create, read, update, delete"
    },
    {
      "name": "1.04 Advanced Configuration",
      "description": "duplicate, export, decrypt"
    },
    {
      "name": "1.05 Job",
      "description": "create, read, update, delete"
    },
    {
      "name": "1.06 Machine",
      "description": "create, read, update, delete"
    },
    {
      "name": "1.07 User",
      "description": "create, read, update, delete"
    },
    {
      "name": "1.08 Parts",
      "description": "create, read, update, delete"
    },
    {
      "name": "1.09 Project",
      "description": "create, read, update, delete"
    },
    {
      "name": "1.10 Topic",
      "description": "create, read, update, delete"
    },
    {
      "name": "1.11 GraphComponent types",
      "description": "create, read, update, delete"
    },
    {
      "name": "2.00 Config Control",
      "description": "init, start and stop config"
    },
    {
      "name": "2.01 Machine Control",
      "description": "acquire and release machine"
    },
    {
      "name": "2.02 Execution",
      "description": "execute scripts"
    },
    {
      "name": "3.00 Machine Tests",
      "description": "functionality to test if the machine is working properly"
    },
    {
      "name": "Session Data",
      "description": "session data"
    },
    {
      "name": "4.00 Gateway Administration",
      "description": "gateway administration"
    }
  ]
}